index.htm,
pg_header.inc,
pg_footer.inc,
ad.cgi,
network.cgi,
ad.cgx,
lcd.cgi,
leds.cgi,
system.cgi,
tcp.cgi,
xml_http.js,
home.png,
keil.gif,
llblue.jpg,
logo.gif,
pabb.gif,
time.cgi,
time_rtc.cgx,
flash.cgi 
TO Web.c RTE NOPRINT ROOT(Web)
